Ung2009 Growth and Yield Model — Ung2009 • CanadaForestAllometry
…
    Examples

# Example 1: Use both models (default), returning columns: age, H, BA, V, V2
res_both <- Ung2009(
  species = "ABIE.BAL",
  age = 1:150,
  GDD = 1500,
  PREC = 800
)
res_both
#> # A tibble: 150 × 5
#>      age             H       BA        V       V2
#>    <int>         <dbl>    <dbl>    <dbl>    <dbl>
#>  1     1 0.00000000972 3.79e-30 6.49e-37 7.47e-37
#>  2     2 0.000439      1.66e-14 1.72e-17 1.92e-17
#>  3     3 0.0156        2.72e- 9 5.13e-11 5.67e-11
#>  4     4 0.0932        1.10e- 6 8.85e- 8 9.74e- 8
#>  5     5 0.272         4.03e- 5 7.75e- 6 8.50e- 6
#>  6     6 0.556         4.44e- 4 1.53e- 4 1.67e- 4
#>  7     7 0.926         2.47e- 3 1.29e- 3 1.41e- 3
#>  8     8 1.36          8.93e- 3 6.35e- 3 6.94e- 3
#>  9     9 1.83          2.43e- 2 2.20e- 2 2.40e- 2
#> 10    10 2.32          5.41e- 2 5.94e- 2 6.48e- 2
#> # ℹ 140 more rows

# Example 2: Use only the Nat1 model, returning columns: age, H, BA, V
res_nat1 <- Ung2009(
  species = "ABIE.BAL",
  age = 1:150,
  GDD = 1500,
  PREC = 800,
  model = "Nat1"
)
res_nat1
#> # A tibble: 150 × 4
#>      age             H       BA        V
#>    <int>         <dbl>    <dbl>    <dbl>
#>  1     1 0.00000000972 3.79e-30 6.49e-37
#>  2     2 0.000439      1.66e-14 1.72e-17
#>  3     3 0.0156        2.72e- 9 5.13e-11
#>  4     4 0.0932        1.10e- 6 8.85e- 8
#>  5     5 0.272         4.03e- 5 7.75e- 6
#>  6     6 0.556         4.44e- 4 1.53e- 4
#>  7     7 0.926         2.47e- 3 1.29e- 3
#>  8     8 1.36          8.93e- 3 6.35e- 3
#>  9     9 1.83          2.43e- 2 2.20e- 2
#> 10    10 2.32          5.41e- 2 5.94e- 2
#> # ℹ 140 more rows

# Example 3: Use only the Nat2 model, returning columns: age, V2
res_nat2 <- Ung2009(
  species = "ABIE.BAL",
  age = 1:150,
  GDD = 1500,
  PREC = 800,
  model = "Nat2"
)
res_nat2
#> # A tibble: 150 × 2
#>      age       V2
#>    <int>    <dbl>
#>  1     1 7.47e-37
#>  2     2 1.92e-17
#>  3     3 5.67e-11
#>  4     4 9.74e- 8
#>  5     5 8.50e- 6
#>  6     6 1.67e- 4
#>  7     7 1.41e- 3
#>  8     8 6.94e- 3
#>  9     9 2.40e- 2
#> 10    10 6.48e- 2
#> # ℹ 140 more rows
…
